module user

go 1.20

require (
	github.com/grpc-ecosystem/go-grpc-middleware v1.4.0
	github.com/spf13/viper v1.15.0
	go.opentelemetry.io/contrib/instrumentation/google.golang.org/grpc/otelgrpc v0.41.1
	google.golang.org/grpc v1.54.0
	google.golang.org/protobuf v1.30.0
	gorm.io/driver/postgres v1.5.0
	gorm.io/gorm v1.25.1
)

require (
	github.com/fsnotify/fsnotify v1.6.0 // indirect
	github.com/go-logr/logr v1.2.4 // indirect
	github.com/go-logr/stdr v1.2.2 // indirect
	github.com/golang/protobuf v1.5.3 // indirect
	github.com/hashicorp/hcl v1.0.0 // indirect
	github.com/jackc/pgpassfile v1.0.0 // indirect
	github.com/jackc/pgservicefile v0.0.0-20221227161230-091c0ba34f0a // indirect
	github.com/jackc/pgx/v5 v5.3.0 // indirect
	github.com/jinzhu/inflection v1.0.0 // indirect
	github.com/jinzhu/now v1.1.5 // indirect
	github.com/magiconair/properties v1.8.7 // indirect
	github.com/mitchellh/mapstructure v1.5.0 // indirect
	github.com/pelletier/go-toml/v2 v2.0.6 // indirect
	github.com/rogpeppe/go-internal v1.8.0 // indirect
	github.com/spf13/afero v1.9.3 // indirect
	github.com/spf13/cast v1.5.0 // indirect
	github.com/spf13/jwalterweatherman v1.1.0 // indirect
	github.com/spf13/pflag v1.0.5 // indirect
	github.com/subosito/gotenv v1.4.2 // indirect
	go.opentelemetry.io/otel v1.15.1 // indirect
	go.opentelemetry.io/otel/metric v0.38.1 // indirect
	go.opentelemetry.io/otel/trace v1.15.1 // indirect
	golang.org/x/crypto v0.6.0 // indirect
	golang.org/x/net v0.9.0 // indirect
	golang.org/x/sys v0.7.0 // indirect
	golang.org/x/text v0.9.0 // indirect
	google.golang.org/genproto v0.0.0-20230110181048-76db0878b65f // indirect
	gopkg.in/ini.v1 v1.67.0 // indirect
	gopkg.in/yaml.v3 v3.0.1 // indirect
)
